[gd_scene load_steps=3 format=2]

[ext_resource path="res://Scenes/Controllers/Controller/Controller.gd" type="Script" id=1]
[ext_resource path="res://Scenes/World/Entities/Body/Body.tscn" type="PackedScene" id=2]

[node name="Controller" type="Node2D"]
script = ExtResource( 1 )

[node name="Body" parent="." instance=ExtResource( 2 )]

[connection signal="died" from="Body" to="." method="_on_Body_died"]
