; Engine configuration file.
; It's best edited using the editor UI and not directly,
; since the parameters that go here are not all obvious.
;
; Format:
;   [section] ; section goes between []
;   param=value ; assign values to parameters

config_version=4

_global_script_classes=[ {
"base": "Stat",
"class": "Attribute",
"language": "GDScript",
"path": "res://Scripts/Stats/Attributes/Attribute.gd"
}, {
"base": "Node2D",
"class": "Body",
"language": "GDScript",
"path": "res://Scenes/World/Entities/Body/Body.gd"
}, {
"base": "PanelContainer",
"class": "CharacterPanel",
"language": "GDScript",
"path": "res://Scenes/UI/CharacterPanel/CharacterPanel.gd"
}, {
"base": "Node2D",
"class": "Controller",
"language": "GDScript",
"path": "res://Scenes/Controllers/Controller/Controller.gd"
}, {
"base": "Control",
"class": "Edge",
"language": "GDScript",
"path": "res://Scenes/UI/Graphs/Basic/Edge/Edge.gd"
}, {
"base": "Control",
"class": "Graph",
"language": "GDScript",
"path": "res://Scenes/UI/Graphs/Basic/Graph.gd"
}, {
"base": "PanelContainer",
"class": "InventorySlot",
"language": "GDScript",
"path": "res://Scenes/UI/HUD/CharacterPanels/InventoryScreen/InventorySlot.gd"
}, {
"base": "SecondaryAttribute",
"class": "PercentileAttribute",
"language": "GDScript",
"path": "res://Scripts/Stats/Attributes/PercentileAttribute.gd"
}, {
"base": "Attribute",
"class": "PotentialAttribute",
"language": "GDScript",
"path": "res://Scripts/Stats/Attributes/PotentialAttribute.gd"
}, {
"base": "RealAttribute",
"class": "PrimaryAttribute",
"language": "GDScript",
"path": "res://Scripts/Stats/Attributes/PrimaryAttribute.gd"
}, {
"base": "Attribute",
"class": "RealAttribute",
"language": "GDScript",
"path": "res://Scripts/Stats/Attributes/RealAttribute.gd"
}, {
"base": "Edge",
"class": "Requirement",
"language": "GDScript",
"path": "res://Scenes/UI/Graphs/RequirementGraph/Requirement/Requirement.gd"
}, {
"base": "Graph",
"class": "RequirementGraph",
"language": "GDScript",
"path": "res://Scenes/UI/Graphs/RequirementGraph/RequirementGraph.gd"
}, {
"base": "Vertex",
"class": "RequirementNode",
"language": "GDScript",
"path": "res://Scenes/UI/Graphs/RequirementGraph/RequirementNode/RequirementNode.gd"
}, {
"base": "PrimaryAttribute",
"class": "ResourceAttribute",
"language": "GDScript",
"path": "res://Scripts/Stats/Attributes/ResourceAttribute.gd"
}, {
"base": "StatContainer",
"class": "ResourceContainer",
"language": "GDScript",
"path": "res://Scripts/Stats/ResourceContainer.gd"
}, {
"base": "Node2D",
"class": "Room",
"language": "GDScript",
"path": "res://Scenes/World/Room/Room.gd"
}, {
"base": "RealAttribute",
"class": "SecondaryAttribute",
"language": "GDScript",
"path": "res://Scripts/Stats/Attributes/SecondaryAttribute.gd"
}, {
"base": "Stat",
"class": "Skill",
"language": "GDScript",
"path": "res://Scripts/Skills/Skill.gd"
}, {
"base": "Node",
"class": "Stat",
"language": "GDScript",
"path": "res://Scripts/Stats/Stat.gd"
}, {
"base": "Stat",
"class": "StatContainer",
"language": "GDScript",
"path": "res://Scripts/Stats/StatContainer.gd"
}, {
"base": "Node",
"class": "Talent",
"language": "GDScript",
"path": "res://Scripts/Talent.gd"
}, {
"base": "RequirementNode",
"class": "TalentNode",
"language": "GDScript",
"path": "res://Scenes/UI/Graphs/TalentGraph/TalentNode.gd"
}, {
"base": "Node",
"class": "TalentTree",
"language": "GDScript",
"path": "res://Scripts/TalentTree.gd"
}, {
"base": "Control",
"class": "Vertex",
"language": "GDScript",
"path": "res://Scenes/UI/Graphs/Basic/Vertex/Vertex.gd"
} ]
_global_script_class_icons={
"Attribute": "",
"Body": "",
"CharacterPanel": "",
"Controller": "",
"Edge": "",
"Graph": "",
"InventorySlot": "",
"PercentileAttribute": "",
"PotentialAttribute": "",
"PrimaryAttribute": "",
"RealAttribute": "",
"Requirement": "",
"RequirementGraph": "",
"RequirementNode": "",
"ResourceAttribute": "",
"ResourceContainer": "",
"Room": "",
"SecondaryAttribute": "",
"Skill": "",
"Stat": "",
"StatContainer": "",
"Talent": "",
"TalentNode": "",
"TalentTree": "",
"Vertex": ""
}

[application]

config/name="The Temple Of The Elements"
run/main_scene="res://Scenes/Main/Main.tscn"
config/icon="res://icon.png"

[input]

ui_left={
"deadzone": 0.5,
"events": [ Object(InputEventKey,"resource_local_to_scene":false,"resource_name":"","device":0,"alt":false,"shift":false,"control":false,"meta":false,"command":false,"pressed":false,"scancode":16777231,"unicode":0,"echo":false,"script":null)
, Object(InputEventJoypadButton,"resource_local_to_scene":false,"resource_name":"","device":0,"button_index":14,"pressure":0.0,"pressed":false,"script":null)
, Object(InputEventKey,"resource_local_to_scene":false,"resource_name":"","device":0,"alt":false,"shift":false,"control":false,"meta":false,"command":false,"pressed":false,"scancode":65,"unicode":0,"echo":false,"script":null)
 ]
}
ui_right={
"deadzone": 0.5,
"events": [ Object(InputEventKey,"resource_local_to_scene":false,"resource_name":"","device":0,"alt":false,"shift":false,"control":false,"meta":false,"command":false,"pressed":false,"scancode":16777233,"unicode":0,"echo":false,"script":null)
, Object(InputEventJoypadButton,"resource_local_to_scene":false,"resource_name":"","device":0,"button_index":15,"pressure":0.0,"pressed":false,"script":null)
, Object(InputEventKey,"resource_local_to_scene":false,"resource_name":"","device":0,"alt":false,"shift":false,"control":false,"meta":false,"command":false,"pressed":false,"scancode":68,"unicode":0,"echo":false,"script":null)
 ]
}
ui_up={
"deadzone": 0.5,
"events": [ Object(InputEventKey,"resource_local_to_scene":false,"resource_name":"","device":0,"alt":false,"shift":false,"control":false,"meta":false,"command":false,"pressed":false,"scancode":16777232,"unicode":0,"echo":false,"script":null)
, Object(InputEventJoypadButton,"resource_local_to_scene":false,"resource_name":"","device":0,"button_index":12,"pressure":0.0,"pressed":false,"script":null)
, Object(InputEventKey,"resource_local_to_scene":false,"resource_name":"","device":0,"alt":false,"shift":false,"control":false,"meta":false,"command":false,"pressed":false,"scancode":87,"unicode":0,"echo":false,"script":null)
 ]
}
ui_down={
"deadzone": 0.5,
"events": [ Object(InputEventKey,"resource_local_to_scene":false,"resource_name":"","device":0,"alt":false,"shift":false,"control":false,"meta":false,"command":false,"pressed":false,"scancode":16777234,"unicode":0,"echo":false,"script":null)
, Object(InputEventJoypadButton,"resource_local_to_scene":false,"resource_name":"","device":0,"button_index":13,"pressure":0.0,"pressed":false,"script":null)
, Object(InputEventKey,"resource_local_to_scene":false,"resource_name":"","device":0,"alt":false,"shift":false,"control":false,"meta":false,"command":false,"pressed":false,"scancode":83,"unicode":0,"echo":false,"script":null)
 ]
}
ui_turn_left={
"deadzone": 0.5,
"events": [ Object(InputEventKey,"resource_local_to_scene":false,"resource_name":"","device":0,"alt":false,"shift":false,"control":false,"meta":false,"command":false,"pressed":false,"scancode":81,"unicode":0,"echo":false,"script":null)
 ]
}
ui_turn_right={
"deadzone": 0.5,
"events": [ Object(InputEventKey,"resource_local_to_scene":false,"resource_name":"","device":0,"alt":false,"shift":false,"control":false,"meta":false,"command":false,"pressed":false,"scancode":69,"unicode":0,"echo":false,"script":null)
 ]
}
ui_stats={
"deadzone": 0.5,
"events": [ Object(InputEventKey,"resource_local_to_scene":false,"resource_name":"","device":0,"alt":false,"shift":false,"control":false,"meta":false,"command":false,"pressed":false,"scancode":67,"unicode":0,"echo":false,"script":null)
 ]
}
ui_skills={
"deadzone": 0.5,
"events": [ Object(InputEventKey,"resource_local_to_scene":false,"resource_name":"","device":0,"alt":false,"shift":false,"control":false,"meta":false,"command":false,"pressed":false,"scancode":75,"unicode":0,"echo":false,"script":null)
 ]
}
ui_inventory={
"deadzone": 0.5,
"events": [ Object(InputEventKey,"resource_local_to_scene":false,"resource_name":"","device":0,"alt":false,"shift":false,"control":false,"meta":false,"command":false,"pressed":false,"scancode":73,"unicode":0,"echo":false,"script":null)
 ]
}
ui_lore={
"deadzone": 0.5,
"events": [ Object(InputEventKey,"resource_local_to_scene":false,"resource_name":"","device":0,"alt":false,"shift":false,"control":false,"meta":false,"command":false,"pressed":false,"scancode":76,"unicode":0,"echo":false,"script":null)
 ]
}
ui_talent_wheel={
"deadzone": 0.5,
"events": [ Object(InputEventKey,"resource_local_to_scene":false,"resource_name":"","device":0,"alt":false,"shift":false,"control":false,"meta":false,"command":false,"pressed":false,"scancode":84,"unicode":0,"echo":false,"script":null)
 ]
}

[layer_names]

2d_physics/layer_1="Walls"
2d_physics/layer_2="Bodies"
2d_physics/layer_3="Attacks"

[physics]

2d/default_gravity=0
2d/default_gravity_vector=Vector2( 0, 0 )

[rendering]

environment/default_environment="res://default_env.tres"
