[gd_scene load_steps=2 format=2]

[ext_resource path="res://Scenes/UI/CharacterPanel/CharacterPanel.tscn" type="PackedScene" id=1]

[node name="SkillScreen" index="0" instance=ExtResource( 1 )]

[node name="ScreenTitle" parent="ScreenLayout/TitleBar/TitleCenterer" index="0"]
text = "Skills"

