[gd_scene load_steps=6 format=2]

[ext_resource path="res://Scenes/Controllers/Controller/Controller.tscn" type="PackedScene" id=1]
[ext_resource path="res://Scenes/Controllers/Player/Player.gd" type="Script" id=2]
[ext_resource path="res://Scenes/UI/HUD/HUD.tscn" type="PackedScene" id=3]
[ext_resource path="res://Scripts/Stats/StatContainer.gd" type="Script" id=4]
[ext_resource path="res://Scripts/Stats/Attributes/PrimaryAttribute.gd" type="Script" id=5]

[node name="Player" instance=ExtResource( 1 )]
script = ExtResource( 2 )

[node name="Camera" type="Camera2D" parent="Body" index="2"]
rotating = true
current = true
drag_margin_h_enabled = false
drag_margin_v_enabled = false

[node name="HUD" parent="." index="1" instance=ExtResource( 3 )]

[node name="Attributes" type="Node" parent="." index="2"]
script = ExtResource( 4 )

[node name="CharacterPoints" type="Node" parent="Attributes" index="0"]
script = ExtResource( 5 )

[connection signal="stat_changed" from="Body" to="." method="_on_Body_stat_changed"]
